<?xml version="1.0" encoding="UTF-8" standalone="no"?>
<svg
   xmlns:dc="http://purl.org/dc/elements/1.1/"
   xmlns:cc="http://creativecommons.org/ns#"
   xmlns:rdf="http://www.w3.org/1999/02/22-rdf-syntax-ns#"
   xmlns:svg="http://www.w3.org/2000/svg"
   xmlns="http://www.w3.org/2000/svg"
   xmlns:xlink="http://www.w3.org/1999/xlink"
   xmlns:sodipodi="http://sodipodi.sourceforge.net/DTD/sodipodi-0.dtd"
   xmlns:inkscape="http://www.inkscape.org/namespaces/inkscape"
   inkscape:export-ydpi="90"
   inkscape:export-xdpi="90"
   inkscape:export-filename="panel-gnu-watermatk-2.png"
   sodipodi:docname="panel.svg"
   inkscape:version="1.0 (4035a4fb49, 2020-05-01)"
   version="1.1"
   id="svg2"
   height="500"
   width="720">
  <title
     id="title4372">Guix Panel for a SLiM Theme</title>
  <defs
     id="defs4">
    <pattern
       patternTransform="scale(10,10)"
       id="pattern5521"
       xlink:href="#Checkerboard"
       inkscape:collect="always" />
    <filter
       color-interpolation-filters="sRGB"
       height="1.3981932"
       y="-0.19909662"
       width="1.0545793"
       x="-0.027289612"
       id="filter4246-5"
       inkscape:collect="always">
      <feGaussianBlur
         id="feGaussianBlur4248-0"
         stdDeviation="2.226875"
         inkscape:collect="always" />
    </filter>
    <filter
       color-interpolation-filters="sRGB"
       height="1.5351905"
       y="-0.26759526"
       width="1.0675759"
       x="-0.033787955"
       id="filter4291-1"
       inkscape:collect="always">
      <feGaussianBlur
         id="feGaussianBlur4293-6"
         stdDeviation="1.0771973"
         inkscape:collect="always" />
    </filter>
    <filter
       inkscape:collect="always"
       id="filter4149-1"
       style="color-interpolation-filters:sRGB">
      <feGaussianBlur
         inkscape:collect="always"
         stdDeviation="1.5605469"
         id="feGaussianBlur4151-9" />
    </filter>
    <linearGradient
       y2="63.65625"
       x2="189.3125"
       y1="63.65625"
       x1="142.96875"
       gradientTransform="matrix(0.88673584,0,0,0.88673584,315.31498,943.74222)"
       gradientUnits="userSpaceOnUse"
       id="linearGradient8344-5"
       xlink:href="#linearGradient4702-9"
       inkscape:collect="always" />
    <linearGradient
       id="linearGradient4702-9">
      <stop
         style="stop-color:#ff0000;stop-opacity:0.74846625;"
         offset="0"
         id="stop4704-1" />
      <stop
         style="stop-color:#ffb000;stop-opacity:0;"
         offset="1"
         id="stop4706-3" />
    </linearGradient>
    <linearGradient
       y2="922.07178"
       x2="78.000107"
       y1="1004.8033"
       x1="113.5146"
       gradientTransform="matrix(0.88673584,0,0,0.88673584,315.31498,187.92213)"
       gradientUnits="userSpaceOnUse"
       id="linearGradient8346-8"
       xlink:href="#linearGradient4708-8"
       inkscape:collect="always" />
    <linearGradient
       id="linearGradient4708-8">
      <stop
         style="stop-color:#ff0000;stop-opacity:0.58282208;"
         offset="0"
         id="stop4710-1" />
      <stop
         style="stop-color:#ff0000;stop-opacity:0;"
         offset="1"
         id="stop4712-6" />
    </linearGradient>
    <linearGradient
       y2="1043.709"
       x2="80.655251"
       y1="1025.709"
       x1="108.08774"
       gradientTransform="matrix(-0.49654141,0,0,0.49654141,455.19855,560.08355)"
       gradientUnits="userSpaceOnUse"
       id="linearGradient8348-8"
       xlink:href="#linearGradient4696-7-0"
       inkscape:collect="always" />
    <linearGradient
       id="linearGradient4696-7-0">
      <stop
         style="stop-color:#ffb638;stop-opacity:1;"
         offset="0"
         id="stop4698-6" />
      <stop
         style="stop-color:#ffc100;stop-opacity:1;"
         offset="1"
         id="stop4700-3" />
    </linearGradient>
    <linearGradient
       y2="63.65625"
       x2="189.3125"
       y1="63.65625"
       x1="142.96875"
       gradientTransform="matrix(-0.88673584,0,0,0.88673584,494.68501,943.74222)"
       gradientUnits="userSpaceOnUse"
       id="linearGradient8350-2"
       xlink:href="#linearGradient4702-9"
       inkscape:collect="always" />
    <pattern
       inkscape:collect="always"
       xlink:href="#Checkerboard"
       id="pattern4906"
       patternTransform="matrix(9.0000004,0,0,8.3333334,-2.2460461e-5,552.36218)" />
    <radialGradient
       r="512"
       fy="147.55556"
       fx="349"
       cy="147.55556"
       cx="349"
       gradientTransform="matrix(0.70312502,0,0,0.48828125,-2.2460461e-5,661.73718)"
       gradientUnits="userSpaceOnUse"
       id="radialGradient6228"
       xlink:href="#linearGradient7972-6-9"
       inkscape:collect="always" />
    <linearGradient
       id="linearGradient7972-6-9">
      <stop
         style="stop-color:#293034;stop-opacity:1;"
         offset="0"
         id="stop7974-2-0" />
      <stop
         style="stop-color:#1a1a1a;stop-opacity:1;"
         offset="1"
         id="stop7976-2-1" />
    </linearGradient>
    <pattern
       inkscape:isstock="true"
       inkscape:collect="always"
       patternUnits="userSpaceOnUse"
       width="2"
       height="2"
       patternTransform="translate(0,0) scale(10,10)"
       id="Checkerboard"
       inkscape:stockid="Checkerboard">
      <rect
         style="fill:black;stroke:none"
         x="0"
         y="0"
         width="1"
         height="1"
         id="rect5581" />
      <rect
         style="fill:black;stroke:none"
         x="1"
         y="1"
         width="1"
         height="1"
         id="rect5583" />
    </pattern>
    <radialGradient
       r="512"
       fy="147.55556"
       fx="349"
       cy="147.55556"
       cx="349"
       gradientTransform="matrix(1.40625,0,0,0.87890625,-4.4920922e-5,-230.76283)"
       gradientUnits="userSpaceOnUse"
       id="radialGradient5475"
       xlink:href="#linearGradient7972-6-9"
       inkscape:collect="always" />
  </defs>
  <sodipodi:namedview
     inkscape:document-rotation="0"
     inkscape:guide-bbox="true"
     showguides="true"
     fit-margin-bottom="0"
     fit-margin-right="0"
     fit-margin-left="0"
     fit-margin-top="0"
     inkscape:snap-global="false"
     inkscape:bbox-nodes="true"
     inkscape:snap-bbox="true"
     borderlayer="true"
     inkscape:showpageshadow="false"
     inkscape:window-maximized="1"
     inkscape:window-y="27"
     inkscape:window-x="0"
     inkscape:window-height="1016"
     inkscape:window-width="1920"
     showgrid="false"
     inkscape:current-layer="layer3"
     inkscape:document-units="px"
     inkscape:cy="405.96022"
     inkscape:cx="324.20303"
     inkscape:zoom="1"
     inkscape:pageshadow="2"
     inkscape:pageopacity="0.0"
     borderopacity="1.0"
     bordercolor="#666666"
     pagecolor="#ffffff"
     id="base" />
  <metadata
     id="metadata7">
    <rdf:RDF>
      <cc:Work
         rdf:about="">
        <dc:format>image/svg+xml</dc:format>
        <dc:type
           rdf:resource="http://purl.org/dc/dcmitype/StillImage" />
        <dc:title>Guix Panel for a SLiM Theme</dc:title>
        <dc:date>2015-03-01</dc:date>
        <dc:creator>
          <cc:Agent>
            <dc:title>Luis Felipe López Acevedo</dc:title>
          </cc:Agent>
        </dc:creator>
        <dc:description>A Guix panel image for the SLiM login manager.

This image is dedicated to the public domain, except for the Guix logo, which can be used under the  Creative Commons Attribution-ShareAlike 4.0 International License.</dc:description>
        <cc:license
           rdf:resource="http://creativecommons.org/publicdomain/zero/1.0/" />
        <dc:contributor>
          <cc:Agent>
            <dc:title />
          </cc:Agent>
        </dc:contributor>
        <dc:rights>
          <cc:Agent>
            <dc:title>Luis Felipe López Acevedo</dc:title>
          </cc:Agent>
        </dc:rights>
      </cc:Work>
      <cc:License
         rdf:about="http://creativecommons.org/publicdomain/zero/1.0/">
        <cc:permits
           rdf:resource="http://creativecommons.org/ns#Reproduction" />
        <cc:permits
           rdf:resource="http://creativecommons.org/ns#Distribution" />
        <cc:permits
           rdf:resource="http://creativecommons.org/ns#DerivativeWorks" />
      </cc:License>
    </rdf:RDF>
  </metadata>
  <g
     sodipodi:insensitive="true"
     inkscape:label="README"
     id="layer3"
     inkscape:groupmode="layer">
    <text
       id="text4186"
       y="519"
       x="3.597168"
       style="font-style:normal;font-weight:bold;line-height:0%;font-family:sans-serif;-inkscape-font-specification:'Sans Bold';text-align:start;letter-spacing:0px;word-spacing:0px;writing-mode:lr-tb;text-anchor:start;fill:#000000;fill-opacity:1;stroke:none"
       xml:space="preserve"><tspan
         style="font-size:13px;line-height:1.25;font-family:sans-serif"
         y="519"
         x="3.597168"
         id="tspan4188"
         sodipodi:role="line">====================</tspan><tspan
         style="font-size:13px;line-height:1.25;font-family:sans-serif"
         id="tspan4192"
         y="535.25"
         x="3.597168"
         sodipodi:role="line">Notes About This Image</tspan><tspan
         style="font-size:13px;line-height:1.25;font-family:sans-serif"
         id="tspan4190"
         y="551.5"
         x="3.597168"
         sodipodi:role="line">====================</tspan></text>
    <text
       id="text4194"
       y="573.47021"
       x="5"
       style="font-style:normal;font-weight:normal;line-height:0%;font-family:sans-serif;-inkscape-font-specification:Sans;text-align:start;letter-spacing:0px;word-spacing:0px;writing-mode:lr-tb;text-anchor:start;fill:#1a1a1a;fill-opacity:1;stroke:none"
       xml:space="preserve"><tspan
         style="font-size:13px;line-height:1.25;font-family:sans-serif"
         y="573.47021"
         x="5"
         id="tspan4196"
         sodipodi:role="line">This image is used as the Panel for a SLiM theme. More information about SLiM themes is available in the</tspan><tspan
         style="font-size:13px;line-height:1.25;font-family:sans-serif"
         id="tspan4198"
         y="589.72021"
         x="5"
         sodipodi:role="line">THEME file in the latest slim-x.y.z.tar.gz tarball which is available at:</tspan><tspan
         style="font-size:13px;line-height:1.25;font-family:sans-serif"
         id="tspan4289"
         y="605.97021"
         x="5"
         sodipodi:role="line"> </tspan><tspan
         style="font-size:13px;line-height:1.25;font-family:sans-serif"
         id="tspan4293"
         y="622.22021"
         x="5"
         sodipodi:role="line">http://sourceforge.net/projects/slim.berlios/files/</tspan><tspan
         style="font-size:13px;line-height:1.25;font-family:sans-serif"
         id="tspan4200"
         y="638.47021"
         x="5"
         sodipodi:role="line"> </tspan><tspan
         style="font-size:13px;line-height:1.25;font-family:sans-serif"
         id="tspan4202"
         y="654.72021"
         x="5"
         sodipodi:role="line"> </tspan></text>
    <text
       xml:space="preserve"
       style="font-style:normal;font-weight:bold;line-height:0%;font-family:sans-serif;-inkscape-font-specification:'Sans Bold';text-align:start;letter-spacing:0px;word-spacing:0px;writing-mode:lr-tb;text-anchor:start;fill:#000000;fill-opacity:1;stroke:none"
       x="3.597168"
       y="659"
       id="text4297"><tspan
         style="font-size:13px;line-height:1.25;font-family:sans-serif"
         sodipodi:role="line"
         x="3.597168"
         y="659"
         id="tspan4301">Exporting The Panel</tspan><tspan
         style="font-size:13px;line-height:1.25;font-family:sans-serif"
         sodipodi:role="line"
         x="3.597168"
         y="675.25"
         id="tspan4303">-----------------------------</tspan></text>
    <text
       xml:space="preserve"
       style="font-style:normal;font-weight:normal;line-height:0%;font-family:sans-serif;-inkscape-font-specification:Sans;text-align:start;letter-spacing:0px;word-spacing:0px;writing-mode:lr-tb;text-anchor:start;fill:#1a1a1a;fill-opacity:1;stroke:none"
       x="5"
       y="713.47021"
       id="text4305"><tspan
         style="font-size:13px;line-height:1.25;font-family:sans-serif"
         id="tspan4330"
         sodipodi:role="line"
         x="5"
         y="713.47021">1. Hide the following layers: Username label, Background. These layers are used only for testing the panel</tspan><tspan
         style="font-size:13px;line-height:1.25;font-family:sans-serif"
         id="tspan4726"
         sodipodi:role="line"
         x="5"
         y="729.72021">    against a background and are not necessary in the exported image.</tspan><tspan
         style="font-size:13px;line-height:1.25;font-family:sans-serif"
         id="tspan4338"
         sodipodi:role="line"
         x="5"
         y="745.97021">2. Make sure the following layers are visible: Guix logo, Input box, Panel area.</tspan><tspan
         style="font-size:13px;line-height:1.25;font-family:sans-serif"
         id="tspan4336"
         sodipodi:role="line"
         x="5"
         y="762.22021">3. Unlock the &quot;Panel area&quot; layer. Select it and click on the canvas. Then press Ctrl+A. A transparent</tspan><tspan
         style="font-size:13px;line-height:1.25;font-family:sans-serif"
         id="tspan4344"
         sodipodi:role="line"
         x="5"
         y="778.47021">    rectangle is selected. This rectangle is used to indicate Inkscape the area of the image that needs to be</tspan><tspan
         style="font-size:13px;line-height:1.25;font-family:sans-serif"
         id="tspan4346"
         sodipodi:role="line"
         x="5"
         y="794.72021">    exported.</tspan><tspan
         style="font-size:13px;line-height:1.25;font-family:sans-serif"
         id="tspan4348"
         sodipodi:role="line"
         x="5"
         y="810.97021">4. Click the Export button. In the Export area section, &quot;Selection&quot; should be active. In the Image size section,</tspan><tspan
         style="font-size:13px;line-height:1.25;font-family:sans-serif"
         id="tspan4352"
         sodipodi:role="line"
         x="5"
         y="827.22021">    width should be 720 px, height is 420 px, and dpi is 96. Filename should be &quot;panel.png&quot;.</tspan><tspan
         style="font-size:13px;line-height:1.25;font-family:sans-serif"
         id="tspan4356"
         sodipodi:role="line"
         x="5"
         y="843.47021">5. Export.</tspan><tspan
         style="font-size:13px;line-height:1.25;font-family:sans-serif"
         sodipodi:role="line"
         x="5"
         y="859.72021"
         id="tspan4315"> </tspan><tspan
         style="font-size:13px;line-height:1.25;font-family:sans-serif"
         sodipodi:role="line"
         x="5"
         y="875.97021"
         id="tspan4317"> </tspan></text>
    <text
       id="text5487"
       y="879"
       x="3.597168"
       style="font-style:normal;font-weight:bold;line-height:0%;font-family:sans-serif;-inkscape-font-specification:'Sans Bold';text-align:start;letter-spacing:0px;word-spacing:0px;writing-mode:lr-tb;text-anchor:start;fill:#000000;fill-opacity:1;stroke:none"
       xml:space="preserve"><tspan
         style="font-size:13px;line-height:1.25;font-family:sans-serif"
         id="tspan5489"
         y="879"
         x="3.597168"
         sodipodi:role="line">Exporting The Background</tspan><tspan
         style="font-size:13px;line-height:1.25;font-family:sans-serif"
         id="tspan5491"
         y="895.25"
         x="3.597168"
         sodipodi:role="line">--------------------------------------</tspan></text>
    <text
       id="text5493"
       y="933.47021"
       x="5"
       style="font-style:normal;font-weight:normal;line-height:0%;font-family:sans-serif;-inkscape-font-specification:Sans;text-align:start;letter-spacing:0px;word-spacing:0px;writing-mode:lr-tb;text-anchor:start;fill:#1a1a1a;fill-opacity:1;stroke:none"
       xml:space="preserve"><tspan
         style="font-size:13px;line-height:1.25;font-family:sans-serif"
         y="933.47021"
         x="5"
         sodipodi:role="line"
         id="tspan5499">1. Make sure the Background layer is visible.</tspan><tspan
         style="font-size:13px;line-height:1.25;font-family:sans-serif"
         y="949.72021"
         x="5"
         sodipodi:role="line"
         id="tspan5505">2. Unlock it and select the big background located above the canvas. </tspan><tspan
         style="font-size:13px;line-height:1.25;font-family:sans-serif"
         y="965.97021"
         x="5"
         sodipodi:role="line"
         id="tspan5507">3. Click the Export button. In the Export area section, &quot;Selection&quot; should be active. In the Image size section,</tspan><tspan
         style="font-size:13px;line-height:1.25;font-family:sans-serif"
         y="982.22021"
         x="5"
         sodipodi:role="line"
         id="tspan5509">    width should be 1440 px, height is 900 px, and dpi is 96. Filename should be &quot;background.png&quot;.</tspan><tspan
         style="font-size:13px;line-height:1.25;font-family:sans-serif"
         y="998.47021"
         x="5"
         sodipodi:role="line"
         id="tspan5511">4. Export.</tspan><tspan
         style="font-size:13px;line-height:1.25;font-family:sans-serif"
         id="tspan5513"
         y="1014.7202"
         x="5"
         sodipodi:role="line"> </tspan><tspan
         style="font-size:13px;line-height:1.25;font-family:sans-serif"
         id="tspan5515"
         y="1030.9702"
         x="5"
         sodipodi:role="line"> </tspan></text>
  </g>
  <g
     sodipodi:insensitive="true"
     style="display:inline"
     transform="translate(0,-552.36218)"
     id="layer1"
     inkscape:groupmode="layer"
     inkscape:label="Background">
    <rect
       y="552.36218"
       x="0"
       height="500"
       width="720"
       id="rect4050"
       style="display:inline;fill:url(#radialGradient6228);fill-opacity:1;stroke:none" />
    <rect
       style="display:inline;opacity:0.05;fill:url(#pattern4906);fill-opacity:1;stroke:none"
       id="rect4050-2"
       width="720"
       height="500"
       x="0"
       y="552.36218" />
    <g
       inkscape:export-ydpi="96"
       inkscape:export-xdpi="96"
       inkscape:export-filename="background.png"
       id="g5529">
      <rect
         y="-427.63782"
         x="0"
         height="900"
         width="1440"
         id="rect5471"
         style="display:inline;fill:url(#radialGradient5475);fill-opacity:1;stroke:none" />
      <rect
         style="display:inline;opacity:0.05;fill:url(#pattern5521);fill-opacity:1;stroke:none"
         id="rect5485"
         width="1440"
         height="900"
         x="0"
         y="-427.63782" />
    </g>
  </g>
  <g
     sodipodi:insensitive="true"
     transform="translate(0,49.999997)"
     style="display:inline"
     inkscape:label="Panel area"
     id="layer10"
     inkscape:groupmode="layer">
    <rect
       inkscape:export-ydpi="96"
       inkscape:export-xdpi="96"
       inkscape:export-filename="panel.png"
       y="-49.999996"
       x="0"
       height="420"
       width="720"
       id="rect4013"
       style="opacity:0;fill:#125c83;fill-opacity:1;stroke:none" />
  </g>
  <g
     sodipodi:insensitive="true"
     transform="translate(0,49.999995)"
     inkscape:label="Input box"
     id="layer2"
     inkscape:groupmode="layer">
    <g
       id="g3939"
       style="display:inline"
       transform="translate(1.6021733e-7,2.7774047e-6)">
      <rect
         ry="4"
         rx="4"
         y="295.65918"
         x="385.84958"
         height="32.284264"
         width="201"
         id="rect4135"
         style="opacity:0.5;fill:none;stroke:#ffffff;stroke-width:1;stroke-opacity:1" />
      <rect
         style="opacity:0.6;fill:#ffffff;fill-opacity:1;stroke:#ffffff;stroke-opacity:1"
         id="rect3188"
         width="196"
         height="27"
         x="388.34958"
         y="298.3013"
         rx="3"
         ry="3" />
      <path
         style="opacity:0.4;fill:#000000;fill-opacity:1;stroke:none;filter:url(#filter4246-5)"
         d="m 391.34959,298.3013 c -1.662,0 -3,1.338 -3,3 l 0,21 c 0,1.36076 0.91892,2.47391 2.15625,2.84375 -0.0819,-0.27391 -0.15625,-0.54251 -0.15625,-0.84375 l 0,-21 c 0,-1.662 1.338,-3 3,-3 l 190,0 c 0.30124,0 0.56984,0.0744 0.84375,0.15625 -0.36984,-1.23733 -1.48299,-2.15625 -2.84375,-2.15625 l -190,0 z"
         id="rect4164"
         inkscape:connector-curvature="0" />
    </g>
  </g>
  <g
     sodipodi:insensitive="true"
     style="display:inline"
     transform="translate(0,185)"
     inkscape:label="Username label"
     id="layer9"
     inkscape:groupmode="layer">
    <g
       transform="translate(10.349589,-1.6987)"
       id="g4295"
       style="display:inline">
      <text
         id="text4250"
         y="183.14648"
         x="361.25732"
         style="font-style:normal;font-weight:bold;line-height:0%;font-family:sans-serif;-inkscape-font-specification:'Sans Bold';text-align:end;letter-spacing:0px;word-spacing:0px;writing-mode:lr-tb;text-anchor:end;opacity:0.5;fill:#000000;fill-opacity:1;stroke:none;filter:url(#filter4291-1)"
         xml:space="preserve"><tspan
           style="font-size:13px;line-height:1.25;font-family:sans-serif"
           y="183.14648"
           x="361.25732"
           id="tspan4252"
           sodipodi:role="line">Username:</tspan></text>
      <text
         xml:space="preserve"
         style="font-style:normal;font-weight:bold;line-height:0%;font-family:sans-serif;-inkscape-font-specification:'Sans Bold';text-align:end;letter-spacing:0px;word-spacing:0px;writing-mode:lr-tb;text-anchor:end;fill:#ffffff;fill-opacity:1;stroke:none"
         x="361.25732"
         y="181.14648"
         id="text4131"><tspan
           style="font-size:13px;line-height:1.25;font-family:sans-serif"
           sodipodi:role="line"
           id="tspan4133"
           x="361.25732"
           y="181.14648">User name:</tspan></text>
    </g>
  </g>
  <g
     sodipodi:insensitive="true"
     transform="translate(0,49.999997)"
     style="display:inline"
     inkscape:label="Guix logo"
     id="layer7"
     inkscape:groupmode="layer">
    <g
       id="g156">
      <text
         xml:space="preserve"
         style="font-style:normal;font-weight:normal;line-height:0%;font-family:sans-serif;-inkscape-font-specification:Sans;text-align:center;letter-spacing:0px;word-spacing:0px;writing-mode:lr-tb;text-anchor:middle;fill:#000000;fill-opacity:1;stroke:none"
         x="292.29141"
         y="246.35326"
         id="text3917"><tspan
           sodipodi:role="line"
           id="tspan3919"
           x="294.35757"
           y="246.35326"
           style="font-size:13px;line-height:1.25;font-family:sans-serif"> </tspan></text>
      <text
         id="text3917-1"
         y="246.25459"
         x="284.58905"
         style="font-style:normal;font-weight:normal;line-height:0%;font-family:sans-serif;-inkscape-font-specification:Sans;text-align:center;letter-spacing:0px;word-spacing:0px;writing-mode:lr-tb;text-anchor:middle;fill:#000000;fill-opacity:1;stroke:none"
         xml:space="preserve"
         transform="scale(1.0007534,0.99924717)"><tspan
           y="246.25459"
           x="286.64301"
           id="tspan3919-5"
           sodipodi:role="line"
           style="font-size:12.9231px;line-height:1.25;font-family:sans-serif"> </tspan></text>
      <path
         inkscape:connector-curvature="0"
         id="path5227-6"
         d="m 102.1875,149.75 -6.65625,2.5 c 2.474408,6.11332 5.10945,11.35219 7.875,15.71875 2.6927,4.36666 5.71468,8.00549 9.0625,10.84375 3.34769,2.76556 7.0705,4.7838 11.21875,6.09375 3.88892,1.22813 8.27689,1.83245 13.125,1.90625 0.31902,0.01 0.64545,0.0263 0.96875,0.0313 0.32313,0.005 0.64134,0 0.96875,0 0.63953,-0.005 1.27209,-0.0166 1.875,-0.0313 2.21532,-0.0338 4.24099,-0.11933 6,-0.28125 0.46239,-0.0426 0.88094,-0.0731 1.3125,-0.125 0.6078,0.27426 1.20839,0.65153 1.8125,1.15625 -0.1052,-0.14308 -0.43778,-0.59991 -0.9375,-1.21875 12.30874,5.09772 23.8368,60.69172 35.8125,87.375 v 0.0313 h 29.1875 c 0.004,-0.008 -0.004,-0.0228 0,-0.0313 11.34055,-25.26834 22.26408,-76.46762 33.84375,-86.15625 0.3341,-0.27913 0.66477,-0.50213 1,-0.71875 0.14784,-0.0955 0.28943,-0.20064 0.4375,-0.28125 0.0208,-0.011 0.0417,-0.0205 0.0625,-0.0313 0.16791,-0.089 0.36305,-0.15156 0.53125,-0.21875 2.00557,0.28054 4.35072,0.43339 7.09375,0.5 0.91434,0.0222 1.87621,0.0313 2.875,0.0313 5.23995,4e-5 9.94536,-0.62747 14.09375,-1.9375 4.14825,-1.30995 7.87093,-3.32819 11.21875,-6.09375 3.34769,-2.83826 6.36967,-6.47709 9.0625,-10.84375 2.76555,-4.36656 5.40059,-9.60543 7.875,-15.71875 l -6.65625,-2.5 c -2.11055,3.85725 -4.25423,7.02565 -6.4375,9.5 -2.11055,2.40169 -4.45287,4.29453 -7,5.75 -0.59839,0.33441 -1.20656,0.64861 -1.84375,0.9375 -0.0215,0.01 -0.0409,0.0215 -0.0625,0.0313 -1.9802,0.89115 -4.15295,1.56338 -6.5,2 -3.05668,0.50949 -6.55968,0.78129 -10.5625,0.78125 -2.95256,4e-5 -5.60787,-0.14997 -7.9375,-0.4375 -0.0132,-5.9e-4 -0.022,6.8e-4 -0.0313,0 -0.29536,-0.0214 -0.90067,-0.11995 -1.53125,-0.21875 -0.66423,-0.10399 -1.36691,-0.20816 -2.4375,-0.40625 -19.6237,-3.63084 -26.12518,9.99147 -27.53125,13.75 -0.22014,0.58832 -0.3125,0.9375 -0.3125,0.9375 l -23.8437,66.5 -23.84375,-66.5 c 0,0 -0.12361,-0.34918 -0.34375,-0.9375 -1.40607,-3.75854 -7.90755,-17.38085 -27.53125,-13.75 -1.07059,0.19809 -1.74202,0.30226 -2.40625,0.40625 -0.63058,0.0988 -1.23589,0.19751 -1.53125,0.21875 -0.009,6.6e-4 -0.0493,-5.9e-4 -0.0625,0 -2.32976,0.28753 -4.98481,0.43754 -7.9375,0.4375 -4.00268,6e-5 -7.50595,-0.27176 -10.5625,-0.78125 -0.78235,-0.14554 -1.53931,-0.30303 -2.28125,-0.5 -2.22582,-0.5909 -4.26919,-1.43163 -6.125,-2.46875 -2.54726,-1.45547 -4.88945,-3.34831 -7,-5.75 -2.1834,-2.47435 -4.2957,-5.64275 -6.40625,-9.5 l -0.8125,0.3125 c -0.06,-0.10845 -0.12753,-0.20289 -0.1875,-0.3125 z m 285.78125,55.46875 v 12.875 h 15.8125 v -12.875 z m -92.4375,1.5625 c -11.35335,1.4e-4 -20.31415,3.06778 -26.84375,9.15625 -6.52963,6.08847 -9.78125,14.44448 -9.78125,25.0625 0,10.50038 3.21301,18.82153 9.625,24.96875 6.41195,6.11777 15.09153,9.15625 26.0625,9.15625 4.85306,0 9.56598,-0.50188 14.125,-1.53125 4.55891,-1.02951 8.952,-2.56611 13.1875,-4.625 v -31.6875 H 295.4375 v 11.375 h 10.375 v 12.8125 c -1.20597,0.47066 -2.59559,0.82723 -4.125,1.0625 -1.5001,0.20622 -3.11028,0.28125 -4.875,0.28125 -6.50024,0 -11.53301,-1.89318 -15.0625,-5.6875 -3.52955,-3.79419 -5.28128,-9.15423 -5.28125,-16.125 -3e-5,-7.02966 1.82156,-12.45387 5.46875,-16.21875 3.67655,-3.79432 8.89129,-5.6875 15.65625,-5.6875 3.64713,0 7.28844,0.53313 10.90625,1.5625 3.64712,1.02938 7.2921,2.56806 10.96875,4.65625 v -13.625 c -3.559,-1.61766 -7.34551,-2.83256 -11.375,-3.65625 -4.00019,-0.82342 -8.18005,-1.24986 -12.5625,-1.25 z m 33.78125,17.65625 v 30.1875 c 0,6.67677 1.4668,11.74983 4.4375,15.25 3.00008,3.50004 7.35642,5.25 13.0625,5.25 3.20596,0 6.13407,-0.67828 8.78125,-2.03125 2.67653,-1.3824 5.21128,-3.49256 7.59375,-6.375 v 7.125 H 379 V 224.4375 h -15.8125 v 24.40625 c -4e-5,4.5001 -0.93013,8.00184 -2.8125,10.53125 -1.88246,2.52955 -4.48706,3.8125 -7.78125,3.8125 -1.35302,0 -2.56617,-0.28476 -3.625,-0.84375 -1.02947,-0.55885 -1.85295,-1.34549 -2.5,-2.375 -0.50003,-0.79412 -0.85664,-2.07706 -1.0625,-3.8125 -0.20593,-1.76474 -0.31251,-4.62305 -0.3125,-8.59375 0,-1.35296 0.0331,-4.03278 0.0625,-8.0625 0.0295,-4.05875 0.0312,-7.44838 0.0313,-10.125 v -4.9375 h -15.875 z m 58.65625,0 v 49.40625 h 15.8125 V 224.4375 Z m 25.71875,0 17.84375,24.125 -18.71875,25.28125 h 16.71875 l 11,-15.59375 11.09375,15.59375 h 16.75 L 449.65625,248.5 467.46875,224.4375 H 450.75 l -10.21875,14.65625 -10.125,-14.65625 z"
         style="font-style:normal;font-weight:bold;font-size:144px;line-height:125%;font-family:Sans;-inkscape-font-specification:'Sans Bold';letter-spacing:0px;word-spacing:0px;opacity:0.305;fill:#000000;fill-opacity:1;stroke:none;filter:url(#filter4149-1)"
         transform="matrix(0.99483657,0,0,0.99333932,117.38096,1.35684)"
         sodipodi:nodetypes="ccccccsccsccccccccscccsssccccccccccccccsccccscscccsccccscccccccsscsccccccccscscsccccccscscccccccsscccsccccccccccccccccccccccc" />
      <g
         id="g137"
         transform="translate(124,60)">
        <path
           inkscape:connector-curvature="0"
           id="path4181"
           style="font-style:normal;font-weight:bold;font-size:144px;line-height:125%;font-family:Sans;-inkscape-font-specification:'Sans Bold';letter-spacing:0px;word-spacing:0px;fill:#ffffff;fill-opacity:1;stroke:none;stroke-width:0.994088"
           d="m 311.26167,200.57202 c -4.25872,2.06706 -8.68003,3.6174 -13.26394,4.651 -4.58402,1.03346 -9.31585,1.55019 -14.19552,1.55019 -11.03113,0 -19.77024,-3.0711 -26.21735,-9.21317 -6.44715,-6.17163 -9.67071,-14.52841 -9.67071,-25.07048 0,-10.66018 3.28271,-19.04653 9.84815,-25.15917 6.5654,-6.11265 15.55589,-9.16883 26.97149,-9.16896 4.40648,1.3e-4 8.62077,0.41354 12.64288,1.24023 4.05159,0.82696 7.86663,2.05242 11.44514,3.67651 v 13.6868 c -3.69681,-2.09648 -7.37876,-3.66159 -11.04589,-4.69505 -3.63764,-1.03346 -7.29003,-1.55033 -10.95716,-1.55033 -6.80207,0 -12.05144,1.90462 -15.74816,5.71401 -3.66719,3.77982 -5.50079,9.19839 -5.50076,16.25596 -3e-5,6.99844 1.77442,12.40236 5.32332,16.21161 3.54885,3.80939 8.59121,5.71401 15.1271,5.71401 1.77439,0 3.41574,-0.10305 4.92408,-0.31009 1.53779,-0.2362 2.91298,-0.59049 4.12556,-1.06303 v -12.84533 h -10.42484 v -11.42789 h 26.61661 v 31.80318" />
        <path
           inkscape:connector-curvature="0"
           id="path4183"
           style="font-style:normal;font-weight:bold;font-size:144px;line-height:125%;font-family:Sans;-inkscape-font-specification:'Sans Bold';letter-spacing:0px;word-spacing:0px;fill:#ffffff;fill-opacity:1;stroke:none;stroke-width:0.994088"
           d="m 318.70446,186.17636 v -30.2972 h 15.96997 v 4.96095 c -3e-5,2.68725 -0.0148,6.06845 -0.0444,10.14332 -0.0297,4.04572 -0.0444,6.7476 -0.0444,8.10594 -10e-6,3.98646 0.10347,6.86557 0.31054,8.63732 0.20698,1.74232 0.56188,3.01198 1.06466,3.80924 0.65059,1.0336 1.49346,1.83088 2.52858,2.39194 1.06463,0.5612 2.27716,0.8416 3.6376,0.8416 3.31225,0 5.91476,-1.26965 7.80753,-3.80925 1.89269,-2.53945 2.83907,-6.0683 2.83911,-10.58627 v -24.49479 h 15.88123 v 49.60961 h -15.88123 v -7.17566 c -2.39554,2.89389 -4.93889,5.0347 -7.63009,6.42259 -2.6617,1.35834 -5.60431,2.03751 -8.82785,2.03751 -5.73737,0 -10.11432,-1.75697 -13.13086,-5.2709 -2.98699,-3.51408 -4.48046,-8.62268 -4.48046,-15.32595" />
        <path
           inkscape:connector-curvature="0"
           id="path4185"
           style="font-style:normal;font-weight:bold;font-size:144px;line-height:125%;font-family:Sans;-inkscape-font-specification:'Sans Bold';letter-spacing:0px;word-spacing:0px;fill:#ffffff;fill-opacity:1;stroke:none;stroke-width:0.994088"
           d="m 377.69474,155.87916 h 15.88123 v 49.60961 h -15.88123 v -49.60961 m 0,-19.31227 h 15.88123 v 12.93388 h -15.88123 v -12.93388" />
        <path
           inkscape:connector-curvature="0"
           id="path4187"
           style="font-style:normal;font-weight:bold;font-size:144px;line-height:125%;font-family:Sans;-inkscape-font-specification:'Sans Bold';letter-spacing:0px;word-spacing:0px;fill:#ffffff;fill-opacity:1;stroke:none;stroke-width:0.994088"
           d="M 421.47905,180.10805 403.5572,155.87916 h 16.81283 l 10.15866,14.70563 10.29175,-14.70563 h 16.81282 l -17.92184,24.14036 18.80906,25.46925 h -16.81281 l -11.17898,-15.68024 -11.04589,15.68024 h -16.81281 l 18.80906,-25.38072" />
        <g
           transform="matrix(1.3579382,0,0,1.3558945,-357.1335,-1257.3341)"
           id="g3151">
          <path
             inkscape:connector-curvature="0"
             style="font-style:normal;font-weight:bold;font-size:144px;line-height:125%;font-family:Sans;-inkscape-font-specification:'Sans Bold';letter-spacing:0px;word-spacing:0px;fill:#ffcc00;fill-opacity:1;stroke:none"
             d="m 478.14185,985.86217 c -1.59921,2.9227 -3.22274,5.30216 -4.87705,7.17702 -1.59919,1.8198 -3.36267,3.27542 -5.2927,4.37826 -1.87492,1.04778 -4.00222,1.80343 -6.37342,2.24455 -2.31606,0.386 -4.97539,0.582 -8.00833,0.5819 -2.23727,0 -4.2479,-0.1146 -6.01318,-0.33251 -0.007,-4.5e-4 -0.0206,5.1e-4 -0.0278,0 -0.2238,-0.0162 -0.68603,-0.0914 -1.16384,-0.16626 -0.50327,-0.0788 -1.01771,-0.15473 -1.8289,-0.30482 -14.86919,-2.75115 -19.80057,7.57129 -20.866,10.41919 -0.16677,0.4457 -0.24939,0.7204 -0.24939,0.7204 l -18.06725,50.3777 -11.08419,18.8432 h 22.14068 c 9.09339,-20.2468 17.83579,-62.5215 27.184,-66.2558 2.0262,0.2834 4.53775,0.4156 7.56496,0.4156 3.9704,0 7.52531,-0.476 10.66854,-1.4686 3.14322,-0.9926 5.97048,-2.5322 8.50713,-4.6277 2.53662,-2.1506 4.83185,-4.8936 6.8722,-8.2023 2.09547,-3.30862 4.08282,-7.28335 5.95775,-11.91551 l -5.04326,-1.88432 z"
             id="path3153" />
          <path
             inkscape:connector-curvature="0"
             id="path3155"
             d="m 478.14185,985.86217 c -1.59921,2.9227 -3.22274,5.30216 -4.87705,7.17702 -1.59919,1.8198 -3.36267,3.27542 -5.2927,4.37826 -0.45791,0.2559 -0.92534,0.47204 -1.41324,0.69276 -0.0115,0.005 -0.0161,0.0225 -0.0277,0.0277 -0.62505,0.44207 -1.42795,0.8203 -2.52166,1.08071 -12.72116,3.02888 -21.34414,14.51428 -21.919,15.29618 0.50631,-0.423 1.01432,-0.7662 1.52408,-0.9698 2.0262,0.2834 4.53775,0.4156 7.56496,0.4156 3.9704,0 7.52531,-0.476 10.66854,-1.4686 3.14322,-0.9926 5.97048,-2.5322 8.50713,-4.6277 2.53662,-2.1506 4.83185,-4.8936 6.8722,-8.20231 2.09547,-3.30862 4.08282,-7.28335 5.95775,-11.91551 l -5.04326,-1.88432 z"
             style="font-style:normal;font-weight:bold;font-size:144px;line-height:125%;font-family:Sans;-inkscape-font-specification:'Sans Bold';letter-spacing:0px;word-spacing:0px;fill:url(#linearGradient8344-5);fill-opacity:1;stroke:none" />
          <path
             inkscape:connector-curvature="0"
             style="font-style:normal;font-weight:bold;font-size:144px;line-height:125%;font-family:Sans;-inkscape-font-specification:'Sans Bold';letter-spacing:0px;word-spacing:0px;fill:#ffcc00;fill-opacity:1;stroke:none"
             d="m 332.60633,985.86218 c 1.59921,2.9227 3.22273,5.30215 4.87705,7.17701 1.59919,1.81981 3.36267,3.27542 5.2927,4.37826 1.87491,1.04779 4.00222,1.80344 6.37341,2.24455 2.31607,0.3861 4.9754,0.582 8.00834,0.5819 2.23727,0 4.2479,-0.1146 6.01317,-0.3325 0.007,-4.6e-4 0.0206,5e-4 0.0278,0 0.22379,-0.0161 0.68602,-0.0914 1.16384,-0.16627 0.50327,-0.0788 1.01771,-0.15472 1.82889,-0.30481 14.8692,-2.75116 19.80058,7.57128 20.86601,10.41918 0.16676,0.4457 0.24939,0.7204 0.24939,0.7204 l 18.06724,50.3777 11.0842,18.8432 h -22.14068 c -9.09339,-20.2468 -17.83579,-62.5215 -27.184,-66.2558 -2.0262,0.2834 -4.53776,0.4156 -7.56497,0.4156 -3.97039,0 -7.52531,-0.476 -10.66854,-1.4686 -3.14321,-0.9926 -5.97048,-2.5322 -8.50712,-4.6277 -2.53662,-2.1506 -4.83185,-4.8936 -6.8722,-8.2023 -2.09547,-3.30861 -4.08282,-7.28334 -5.95776,-11.91551 l 5.04331,-1.88431 z"
             id="path3157" />
          <path
             sodipodi:nodetypes="ccccccccsscccccccccccc"
             id="path3159"
             d="m 332.60633,985.86218 c 1.59921,2.9227 3.22273,5.30215 4.87705,7.17701 1.59919,1.81981 3.36267,3.27542 5.2927,4.37826 1.87491,1.04779 4.00222,1.80344 6.37341,2.24455 2.31607,0.3861 4.9754,0.582 8.00834,0.5819 2.23727,0 4.2479,-0.1146 6.01317,-0.3325 0.007,-4.6e-4 0.0206,5e-4 0.0278,0 0.22379,-0.0161 0.68602,-0.0914 1.16384,-0.16627 0.50327,-0.0788 1.01771,-0.15472 1.82889,-0.30481 14.8692,-2.75116 19.80058,7.57128 20.86601,10.41918 0.16676,0.4457 0.24939,0.7204 0.24939,0.7204 l 18.06724,50.3777 9.31073,18.8432 h -20.36721 c -9.09339,-20.2468 -17.83579,-62.5215 -27.184,-66.2558 -2.0262,0.2834 -4.53776,0.4156 -7.56497,0.4156 -3.97039,0 -7.52531,-0.476 -10.66854,-1.4686 -3.14321,-0.9926 -5.97048,-2.5322 -8.50712,-4.6277 -2.53662,-2.1506 -4.83185,-4.8936 -6.8722,-8.2023 -2.09547,-3.30861 -4.08282,-7.28334 -5.95776,-11.91551 l 5.04331,-1.88431 z"
             style="font-style:normal;font-weight:bold;font-size:144px;line-height:125%;font-family:Sans;-inkscape-font-specification:'Sans Bold';letter-spacing:0px;word-spacing:0px;fill:url(#linearGradient8346-8);fill-opacity:1;stroke:none"
             inkscape:connector-curvature="0" />
          <path
             inkscape:connector-curvature="0"
             id="path3161"
             style="font-style:normal;font-weight:bold;font-size:144px;line-height:125%;font-family:Sans;-inkscape-font-specification:'Sans Bold';letter-spacing:0px;word-spacing:0px;fill:url(#linearGradient8348-8);fill-opacity:1;stroke:none"
             d="m 405.33584,1060.9581 -11.0407,18.8511 h 22.12962"
             sodipodi:nodetypes="ccc" />
          <path
             inkscape:connector-curvature="0"
             style="font-style:normal;font-weight:bold;font-size:144px;line-height:125%;font-family:Sans;-inkscape-font-specification:'Sans Bold';letter-spacing:0px;word-spacing:0px;fill:url(#linearGradient8350-2);fill-opacity:1;stroke:none"
             d="m 331.85815,985.86218 c 1.59921,2.9227 3.22273,5.30215 4.87704,7.17701 1.5992,1.81981 3.36267,3.27542 5.29271,4.37826 0.45791,0.25591 0.92533,0.47204 1.41323,0.69276 0.0115,0.005 0.0161,0.0225 0.0278,0.0278 0.62504,0.44207 1.42794,0.8203 2.52165,1.08071 12.72117,3.02878 21.34414,14.51428 21.919,15.29618 -0.5063,-0.423 -1.01432,-0.7663 -1.52407,-0.9699 -2.0262,0.2834 -4.53776,0.4157 -7.56497,0.4157 -3.97039,0 -7.52531,-0.4761 -10.66854,-1.4687 -3.14321,-0.9926 -5.97048,-2.5321 -8.50712,-4.6276 -2.53662,-2.1506 -4.83185,-4.8937 -6.8722,-8.20231 -2.09548,-3.30862 -4.08283,-7.28335 -5.95776,-11.91552 l 5.04331,-1.88431 z"
             id="path3163" />
        </g>
      </g>
    </g>
  </g>
</svg>
